{
  "type": "minecraft:crafting_shapeless",
  "group": "brass_dust",
  "ingredients": [
    {
      "tag": "c:copper_dusts"
    },
    {
      "tag": "c:copper_dusts"
    },
    {
      "tag": "c:zinc_dusts"
    }
  ],
  "result": {
    "item": "c:brass_dust",
    "count": 2
  }
}