{
  "type": "minecraft:crafting_shapeless",
  "group": "bronze_ingot",
  "ingredients": [
    {
      "tag": "c:bronze_blocks"
    }
  ],
  "result": {
    "item": "c:bronze_ingot",
    "count": 9
  }
}