{
  "type": "minecraft:crafting_shaped",
  "group": "copper_block",
  "pattern": [
    "RRR",
    "RRR",
    "RRR"
  ],
  "key": {
    "R": {
      "tag": "c:copper_ingots"
    }
  },
  "result": {
    "item": "c:copper_block"
  }
}