{
  "type": "minecraft:blasting",
  "group": "iridium_ingot",
  "ingredient": [
    {
      "tag": "c:iridium_ores"
    },
    {
      "tag": "c:iridium_dusts"
    }
  ],
  "result": "c:iridium_ingot",
  "experience": 1.0,
  "cookingtime": 100
}