{
  "type": "minecraft:crafting_shapeless",
  "group": "osmium_nugget",
  "ingredients": [
    {
      "tag": "c:osmium_ingots"
    }
  ],
  "result": {
    "item": "c:osmium_nugget",
    "count": 9
  }
}