{
  "type": "minecraft:crafting_shapeless",
  "group": "palladium_nugget",
  "ingredients": [
    {
      "tag": "c:palladium_ingots"
    }
  ],
  "result": {
    "item": "c:palladium_nugget",
    "count": 9
  }
}