{
  "type": "minecraft:smelting",
  "group": "rose_gold_ingot",
  "ingredient": [
    {
      "tag": "c:rose_gold_dusts"
    }
  ],
  "result": "c:rose_gold_ingot",
  "experience": 1.0,
  "cookingtime": 200
}