{
  "type": "minecraft:smelting",
  "group": "silver_ingot",
  "ingredient": [
    {
      "tag": "c:silver_ores"
    },
    {
      "tag": "c:silver_dusts"
    }
  ],
  "result": "c:silver_ingot",
  "experience": 1.0,
  "cookingtime": 200
}