{
  "type": "minecraft:crafting_shaped",
  "group": "silver_gear",
  "pattern": [
    " R ",
    "RRR",
    " R "
  ],
  "key": {
    "R": {
      "tag": "c:silver_ingots"
    }
  },
  "result": {
    "item": "c:silver_gear"
  }
}