{
  "type": "minecraft:crafting_shaped",
  "group": "silver_ingot",
  "pattern": [
    "RRR",
    "RRR",
    "RRR"
  ],
  "key": {
    "R": {
      "tag": "c:silver_nuggets"
    }
  },
  "result": {
    "item": "c:silver_ingot"
  }
}