{
  "type": "minecraft:blasting",
  "group": "tungsten_ingot",
  "ingredient": [
    {
      "tag": "c:tungsten_ores"
    },
    {
      "tag": "c:tungsten_dusts"
    }
  ],
  "result": "c:tungsten_ingot",
  "experience": 1.0,
  "cookingtime": 100
}